{
  "serverAddress": ":8082",
  "baseUrl": "http://localhost",
  "databaseDsn": "postgres://postgres:IpADgtAtgAa7@host.docker.internal:5434/license_server",
  "auth": {
    "adminAuthToken": "14453f7cf1cda0c216f154aa07313b30"
  },
  "callback": {
    "maxAttempts": 3,
    "limitUnitOfTime": 10,
    "cronSpec": "1 * * * * *"
  },
  "vault": {
    "isRun": false,
    "url": "http://vault.ireca.site",
    "requestTimeout": 5,
    "roleId": "5f9cb783-4ee9-c249-8d86-5640a7518c55",
    "secretId": "ec132300-6ee3-e648-bebb-40d75a72dce2",
    "mountPath": "kv"
  },
  "graylog": {
    "isRun": false,
    "url": "localhost:9000"
  },
  "sentry": {
    "isRun": false,
    "dsn": "",
    "debug": false,
    "attachStacktrace": false,
    "sampleRate": 0.5,
    "enableTracing": false,
    "tracesSampleRate": 1.0,
    "ignoreErrors": [],
    "ignoreTransactions": [],
    "sendDefaultPII": false,
    "serverName": "Notifier Service",
    "release": "1.0.0",
    "dist": "",
    "environment": "",
    "maxBreadcrumbs": 100,
    "maxSpans": 50,
    "maxErrorDepth": 5
  }
}